argcomplete==1.12.3
backcall==0.2.0
cffi==1.14.5
debugpy==1.4.3
decorator==5.1.0
entrypoints==0.3
greenlet==0.4.13
importlib-metadata==4.8.1
ipykernel==6.4.1
ipython==7.27.0
ipython-genutils==0.2.0
jedi==0.18.0
jupyter-client==7.0.3
jupyter-core==4.8.1
matplotlib-inline==0.1.3
memory-profiler==0.58.0
nest-asyncio==1.5.1
numpy==1.21.2
parso==0.8.2
pexpect==4.8.0
pickleshare==0.7.5
prompt-toolkit==3.0.20
psutil==5.8.0
ptyprocess==0.7.0
py==1.10.0
Pygments==2.10.0
python-dateutil==2.8.2
pyzmq==22.3.0
readline==6.2.4.1
six==1.16.0
tornado==6.1
traitlets==5.1.0
typing-extensions==3.10.0.2
wcwidth==0.2.5
zipp==3.5.0
